{
"values":
    [
        "minecraft:acacia_fence_gate",
        "minecraft:birch_fence_gate",
        "minecraft:crimson_fence_gate",
        "minecraft:dark_oak_fence_gate",
        "minecraft:jungle_fence_gate",
        "minecraft:oak_fence_gate",
        "minecraft:spruce_fence_gate",
        "minecraft:warped_fence_gate",
        "minecraft:mangrove_fence_gate",
        "minecraft:azalea_fence_gate",
        "minecraft:jacaranda_fence_gate"
    ]
} 