{
    "showInfoTooltips": true,
    "infoTooltipKeyBind": "SHIFT",
    "slowEatingLargeSandwiches": true,
    "baseSandwichEatTime": 32,
    "itemOptions": {
        "saltItem": "sandwichable:salt",
        "cucumberItem": "sandwichable:cucumber",
        "pickledCucumberItem": "sandwichable:pickled_cucumber",
        "burntFoodItem": "sandwichable:burnt_food",
        "burntMorselItem": "sandwichable:burnt_morsel"
    },
    "saltySandGenOptions": {
        "rarity": 18,
        "veinSize": 0,
        "maxGenHeight": 0
    },
    "saltPoolGenOptions": {
        "saltPools": false,
        "drySaltPools": false
    }
}