{
  "structures": [
  ],
  "placement": {
    "type": "repurposed_structures:advanced_random_spread",
    "salt": 1047041233,
    "spacing": 61,
    "separation": 30,
    "min_distance_from_world_origin": 1000,
    "super_exclusion_zone": {
      "chunk_count": 5,
      "other_set": "#repurposed_structures:end_outpost_avoid"
    }
  }
}