{
	"pools": [
		{
			"rolls": {
				"min": 1.0,
				"max": 4.0,
				"type": "minecraft:uniform"
			},
			"entries": [
				{
					"type": "minecraft:item",
					"functions": [
						{
							"function": "minecraft:set_count",
							"count": {
								"min": 2.0,
								"max": 4.0,
								"type": "minecraft:uniform"
							}
						}
					],
					"name": "farmersdelight:tomato_seeds"
				},
				{
					"type": "minecraft:item",
					"functions": [
						{
							"function": "minecraft:set_count",
							"count": {
								"min": 2.0,
								"max": 4.0,
								"type": "minecraft:uniform"
							}
						}
					],
					"name": "farmersdelight:cabbage_seeds"
				},
				{
					"type": "minecraft:empty",
					"weight": 2
				}
			]
		},
		{
			"rolls": 3,
			"entries": [
				{
					"type": "minecraft:item",
					"functions": [
						{
							"function": "minecraft:set_count",
							"count": {
								"min": 2.0,
								"max": 12.0,
								"type": "minecraft:uniform"
							}
						}
					],
					"name": "campanion:rope"
				},
				{
					"type": "minecraft:empty",
					"weight": 2
				}
			]
		}
	]
}